470637400 + 0 in total (QC-passed reads + QC-failed reads)
0 + 0 secondary
0 + 0 supplementary
0 + 0 duplicates
440253096 + 0 mapped (93.54% : N/A)
470637400 + 0 paired in sequencing
235318700 + 0 read1
235318700 + 0 read2
395568106 + 0 properly paired (84.05% : N/A)
421071336 + 0 with itself and mate mapped
19181760 + 0 singletons (4.08% : N/A)
22687332 + 0 with mate mapped to a different chr
8291465 + 0 with mate mapped to a different chr (mapQ>=5)
